<?xml version="1.0" standalone="no"?>
<!DOCTYPE svg PUBLIC "-//W3C//DTD SVG 20010904//EN"
 "http://www.w3.org/TR/2001/REC-SVG-20010904/DTD/svg10.dtd">
<svg version="1.0" xmlns="http://www.w3.org/2000/svg"
 width="700.000000pt" height="700.000000pt" viewBox="0 0 700.000000 700.000000"
 preserveAspectRatio="xMidYMid meet">
<metadata>
Created by potrace 1.11, written by Peter Selinger 2001-2013
</metadata>
<g transform="translate(0.000000,700.000000) scale(0.100000,-0.100000)"
fill="#000000" stroke="none">
<path d="M3269 6996 c-2 -2 -41 -6 -87 -10 -404 -29 -867 -162 -1263 -362
-439 -222 -820 -531 -1148 -929 -326 -397 -587 -947 -695 -1465 -25 -116 -29
-142 -46 -262 -26 -178 -35 -594 -17 -787 96 -1076 701 -2061 1622 -2642 291
-184 580 -311 965 -423 98 -29 339 -75 475 -91 258 -30 597 -31 840 -1 310 38
580 107 875 223 153 60 420 190 481 234 15 10 30 19 33 19 3 0 66 40 138 89
469 316 849 728 1120 1216 231 414 374 877 422 1360 17 169 17 493 0 669 -62
648 -296 1252 -687 1771 -566 751 -1420 1250 -2337 1366 -41 5 -91 12 -110 15
-41 6 -575 16 -581 10z"/>
</g>
</svg>
